Aula7Projeto/simulation/qsim/TopLevel.msim.vcd
$comment
	File created using the following command:
		vcd file TopLevel.msim.vcd -direction
$end
$date
	Sun Oct 09 14:41:24 2022
$end
$version
	ModelSim Version 2020.1
$end
$timescale
	1ps
$end

$scope module toplevel_vhd_vec_tst $end
$var wire 1 ! CLOCK_50 $end
$var wire 1 " control [12] $end
$var wire 1 # control [11] $end
$var wire 1 $ control [10] $end
$var wire 1 % control [9] $end
$var wire 1 & control [8] $end
$var wire 1 ' control [7] $end
$var wire 1 ( control [6] $end
$var wire 1 ) control [5] $end
$var wire 1 * control [4] $end
$var wire 1 + control [3] $end
$var wire 1 , control [2] $end
$var wire 1 - control [1] $end
$var wire 1 . control [0] $end
$var wire 1 / KEY [3] $end
$var wire 1 0 KEY [2] $end
$var wire 1 1 KEY [1] $end
$var wire 1 2 KEY [0] $end
$var wire 1 3 Leds [9] $end
$var wire 1 4 Leds [8] $end
$var wire 1 5 Leds [7] $end
$var wire 1 6 Leds [6] $end
$var wire 1 7 Leds [5] $end
$var wire 1 8 Leds [4] $end
$var wire 1 9 Leds [3] $end
$var wire 1 : Leds [2] $end
$var wire 1 ; Leds [1] $end
$var wire 1 < Leds [0] $end
$var wire 1 = PC [8] $end
$var wire 1 > PC [7] $end
$var wire 1 ? PC [6] $end
$var wire 1 @ PC [5] $end
$var wire 1 A PC [4] $end
$var wire 1 B PC [3] $end
$var wire 1 C PC [2] $end
$var wire 1 D PC [1] $end
$var wire 1 E PC [0] $end
$var wire 1 F RAM_simu [8] $end
$var wire 1 G RAM_simu [7] $end
$var wire 1 H RAM_simu [6] $end
$var wire 1 I RAM_simu [5] $end
$var wire 1 J RAM_simu [4] $end
$var wire 1 K RAM_simu [3] $end
$var wire 1 L RAM_simu [2] $end
$var wire 1 M RAM_simu [1] $end
$var wire 1 N RAM_simu [0] $end
$var wire 1 O regA [7] $end
$var wire 1 P regA [6] $end
$var wire 1 Q regA [5] $end
$var wire 1 R regA [4] $end
$var wire 1 S regA [3] $end
$var wire 1 T regA [2] $end
$var wire 1 U regA [1] $end
$var wire 1 V regA [0] $end

$scope module i1 $end
$var wire 1 W gnd $end
$var wire 1 X vcc $end
$var wire 1 Y unknown $end
$var wire 1 Z devoe $end
$var wire 1 [ devclrn $end
$var wire 1 \ devpor $end
$var wire 1 ] ww_devoe $end
$var wire 1 ^ ww_devclrn $end
$var wire 1 _ ww_devpor $end
$var wire 1 ` ww_CLOCK_50 $end
$var wire 1 a ww_KEY [3] $end
$var wire 1 b ww_KEY [2] $end
$var wire 1 c ww_KEY [1] $end
$var wire 1 d ww_KEY [0] $end
$var wire 1 e ww_PC [8] $end
$var wire 1 f ww_PC [7] $end
$var wire 1 g ww_PC [6] $end
$var wire 1 h ww_PC [5] $end
$var wire 1 i ww_PC [4] $end
$var wire 1 j ww_PC [3] $end
$var wire 1 k ww_PC [2] $end
$var wire 1 l ww_PC [1] $end
$var wire 1 m ww_PC [0] $end
$var wire 1 n ww_control [12] $end
$var wire 1 o ww_control [11] $end
$var wire 1 p ww_control [10] $end
$var wire 1 q ww_control [9] $end
$var wire 1 r ww_control [8] $end
$var wire 1 s ww_control [7] $end
$var wire 1 t ww_control [6] $end
$var wire 1 u ww_control [5] $end
$var wire 1 v ww_control [4] $end
$var wire 1 w ww_control [3] $end
$var wire 1 x ww_control [2] $end
$var wire 1 y ww_control [1] $end
$var wire 1 z ww_control [0] $end
$var wire 1 { ww_Leds [9] $end
$var wire 1 | ww_Leds [8] $end
$var wire 1 } ww_Leds [7] $end
$var wire 1 ~ ww_Leds [6] $end
$var wire 1 !! ww_Leds [5] $end
$var wire 1 "! ww_Leds [4] $end
$var wire 1 #! ww_Leds [3] $end
$var wire 1 $! ww_Leds [2] $end
$var wire 1 %! ww_Leds [1] $end
$var wire 1 &! ww_Leds [0] $end
$var wire 1 '! ww_regA [7] $end
$var wire 1 (! ww_regA [6] $end
$var wire 1 )! ww_regA [5] $end
$var wire 1 *! ww_regA [4] $end
$var wire 1 +! ww_regA [3] $end
$var wire 1 ,! ww_regA [2] $end
$var wire 1 -! ww_regA [1] $end
$var wire 1 .! ww_regA [0] $end
$var wire 1 /! ww_RAM_simu [8] $end
$var wire 1 0! ww_RAM_simu [7] $end
$var wire 1 1! ww_RAM_simu [6] $end
$var wire 1 2! ww_RAM_simu [5] $end
$var wire 1 3! ww_RAM_simu [4] $end
$var wire 1 4! ww_RAM_simu [3] $end
$var wire 1 5! ww_RAM_simu [2] $end
$var wire 1 6! ww_RAM_simu [1] $end
$var wire 1 7! ww_RAM_simu [0] $end
$var wire 1 8! \CLOCK_50~input_o\ $end
$var wire 1 9! \KEY[1]~input_o\ $end
$var wire 1 :! \KEY[2]~input_o\ $end
$var wire 1 ;! \KEY[3]~input_o\ $end
$var wire 1 <! \PC[0]~output_o\ $end
$var wire 1 =! \PC[1]~output_o\ $end
$var wire 1 >! \PC[2]~output_o\ $end
$var wire 1 ?! \PC[3]~output_o\ $end
$var wire 1 @! \PC[4]~output_o\ $end
$var wire 1 A! \PC[5]~output_o\ $end
$var wire 1 B! \PC[6]~output_o\ $end
$var wire 1 C! \PC[7]~output_o\ $end
$var wire 1 D! \PC[8]~output_o\ $end
$var wire 1 E! \control[0]~output_o\ $end
$var wire 1 F! \control[1]~output_o\ $end
$var wire 1 G! \control[2]~output_o\ $end
$var wire 1 H! \control[3]~output_o\ $end
$var wire 1 I! \control[4]~output_o\ $end
$var wire 1 J! \control[5]~output_o\ $end
$var wire 1 K! \control[6]~output_o\ $end
$var wire 1 L! \control[7]~output_o\ $end
$var wire 1 M! \control[8]~output_o\ $end
$var wire 1 N! \control[9]~output_o\ $end
$var wire 1 O! \control[10]~output_o\ $end
$var wire 1 P! \control[11]~output_o\ $end
$var wire 1 Q! \control[12]~output_o\ $end
$var wire 1 R! \Leds[0]~output_o\ $end
$var wire 1 S! \Leds[1]~output_o\ $end
$var wire 1 T! \Leds[2]~output_o\ $end
$var wire 1 U! \Leds[3]~output_o\ $end
$var wire 1 V! \Leds[4]~output_o\ $end
$var wire 1 W! \Leds[5]~output_o\ $end
$var wire 1 X! \Leds[6]~output_o\ $end
$var wire 1 Y! \Leds[7]~output_o\ $end
$var wire 1 Z! \Leds[8]~output_o\ $end
$var wire 1 [! \Leds[9]~output_o\ $end
$var wire 1 \! \regA[0]~output_o\ $end
$var wire 1 ]! \regA[1]~output_o\ $end
$var wire 1 ^! \regA[2]~output_o\ $end
$var wire 1 _! \regA[3]~output_o\ $end
$var wire 1 `! \regA[4]~output_o\ $end
$var wire 1 a! \regA[5]~output_o\ $end
$var wire 1 b! \regA[6]~output_o\ $end
$var wire 1 c! \regA[7]~output_o\ $end
$var wire 1 d! \RAM_simu[0]~output_o\ $end
$var wire 1 e! \RAM_simu[1]~output_o\ $end
$var wire 1 f! \RAM_simu[2]~output_o\ $end
$var wire 1 g! \RAM_simu[3]~output_o\ $end
$var wire 1 h! \RAM_simu[4]~output_o\ $end
$var wire 1 i! \RAM_simu[5]~output_o\ $end
$var wire 1 j! \RAM_simu[6]~output_o\ $end
$var wire 1 k! \RAM_simu[7]~output_o\ $end
$var wire 1 l! \RAM_simu[8]~output_o\ $end
$var wire 1 m! \KEY[0]~input_o\ $end
$var wire 1 n! \CPU|incrementaPC_item|Add0~1_sumout\ $end
$var wire 1 o! \CPU|incrementaPC_item|Add0~2\ $end
$var wire 1 p! \CPU|incrementaPC_item|Add0~5_sumout\ $end
$var wire 1 q! \CPU|incrementaPC_item|Add0~6\ $end
$var wire 1 r! \CPU|incrementaPC_item|Add0~9_sumout\ $end
$var wire 1 s! \CPU|incrementaPC_item|Add0~10\ $end
$var wire 1 t! \CPU|incrementaPC_item|Add0~13_sumout\ $end
$var wire 1 u! \ROM|memROM~3_combout\ $end
$var wire 1 v! \CPU|DECODER_item|Equal10~0_combout\ $end
$var wire 1 w! \CPU|DECODER_item|saida[10]~0_combout\ $end
$var wire 1 x! \ROM|memROM~2_combout\ $end
$var wire 1 y! \ROM|memROM~1_combout\ $end
$var wire 1 z! \ROM|memROM~0_combout\ $end
$var wire 1 {! \ROM|memROM~0_wirecell_combout\ $end
$var wire 1 |! \CPU|incrementaPC_item|Add0~14\ $end
$var wire 1 }! \CPU|incrementaPC_item|Add0~17_sumout\ $end
$var wire 1 ~! \CPU|incrementaPC_item|Add0~18\ $end
$var wire 1 !" \CPU|incrementaPC_item|Add0~21_sumout\ $end
$var wire 1 "" \ROM|memROM~4_combout\ $end
$var wire 1 #" \CPU|incrementaPC_item|Add0~22\ $end
$var wire 1 $" \CPU|incrementaPC_item|Add0~25_sumout\ $end
$var wire 1 %" \CPU|incrementaPC_item|Add0~26\ $end
$var wire 1 &" \CPU|incrementaPC_item|Add0~29_sumout\ $end
$var wire 1 '" \CPU|incrementaPC_item|Add0~30\ $end
$var wire 1 (" \CPU|incrementaPC_item|Add0~33_sumout\ $end
$var wire 1 )" \ROM|memROM~5_combout\ $end
$var wire 1 *" \ROM|memROM~6_combout\ $end
$var wire 1 +" \ROM|memROM~7_combout\ $end
$var wire 1 ," \ROM|memROM~8_combout\ $end
$var wire 1 -" \CPU|DECODER_item|saida[6]~3_combout\ $end
$var wire 1 ." \CPU|DECODER_item|Equal10~1_combout\ $end
$var wire 1 /" \RAM|ram~1061_combout\ $end
$var wire 1 0" \RAM|ram~16_q\ $end
$var wire 1 1" \RAM|ram~1060_combout\ $end
$var wire 1 2" \RAM|ram~24_q\ $end
$var wire 1 3" \RAM|ram~1040_combout\ $end
$var wire 1 4" \RAM|ram~1062_combout\ $end
$var wire 1 5" \CPU|ULA_item|Add0~34_cout\ $end
$var wire 1 6" \CPU|ULA_item|Add0~1_sumout\ $end
$var wire 1 7" \RAM|ram~1054_combout\ $end
$var wire 1 8" \CPU|MUX_item|saida_MUX[0]~7_combout\ $end
$var wire 1 9" \CPU|DECODER_item|saida[4]~2_combout\ $end
$var wire 1 :" \CPU|DECODER_item|saida[5]~1_combout\ $end
$var wire 1 ;" \LogicLed_item|comb~2_combout\ $end
$var wire 1 <" \RAM|ram~17_q\ $end
$var wire 1 =" \RAM|ram~25_q\ $end
$var wire 1 >" \RAM|ram~1041_combout\ $end
$var wire 1 ?" \RAM|ram~1056_combout\ $end
$var wire 1 @" \CPU|ULA_item|Add0~2\ $end
$var wire 1 A" \CPU|ULA_item|Add0~5_sumout\ $end
$var wire 1 B" \RAM|ram~1055_combout\ $end
$var wire 1 C" \CPU|MUX_item|saida_MUX[1]~6_combout\ $end
$var wire 1 D" \RAM|ram~18_q\ $end
$var wire 1 E" \RAM|ram~26_q\ $end
$var wire 1 F" \RAM|ram~1042_combout\ $end
$var wire 1 G" \RAM|ram~1086_combout\ $end
$var wire 1 H" \RAM|ram~1048_combout\ $end
$var wire 1 I" \CPU|ULA_item|Add0~6\ $end
$var wire 1 J" \CPU|ULA_item|Add0~9_sumout\ $end
$var wire 1 K" \CPU|MUX_item|saida_MUX[2]~0_combout\ $end
$var wire 1 L" \RAM|ram~19_q\ $end
$var wire 1 M" \RAM|ram~27_q\ $end
$var wire 1 N" \RAM|ram~1043_combout\ $end
$var wire 1 O" \RAM|ram~1082_combout\ $end
$var wire 1 P" \RAM|ram~1049_combout\ $end
$var wire 1 Q" \CPU|ULA_item|Add0~10\ $end
$var wire 1 R" \CPU|ULA_item|Add0~13_sumout\ $end
$var wire 1 S" \CPU|MUX_item|saida_MUX[3]~1_combout\ $end
$var wire 1 T" \RAM|ram~20_q\ $end
$var wire 1 U" \RAM|ram~28_q\ $end
$var wire 1 V" \RAM|ram~1044_combout\ $end
$var wire 1 W" \RAM|ram~1078_combout\ $end
$var wire 1 X" \RAM|ram~1050_combout\ $end
$var wire 1 Y" \CPU|ULA_item|Add0~14\ $end
$var wire 1 Z" \CPU|ULA_item|Add0~17_sumout\ $end
$var wire 1 [" \CPU|MUX_item|saida_MUX[4]~2_combout\ $end
$var wire 1 \" \RAM|ram~21_q\ $end
$var wire 1 ]" \RAM|ram~29_q\ $end
$var wire 1 ^" \RAM|ram~1045_combout\ $end
$var wire 1 _" \RAM|ram~1074_combout\ $end
$var wire 1 `" \RAM|ram~1051_combout\ $end
$var wire 1 a" \CPU|ULA_item|Add0~18\ $end
$var wire 1 b" \CPU|ULA_item|Add0~21_sumout\ $end
$var wire 1 c" \CPU|MUX_item|saida_MUX[5]~3_combout\ $end
$var wire 1 d" \RAM|ram~22_q\ $end
$var wire 1 e" \RAM|ram~30_q\ $end
$var wire 1 f" \RAM|ram~1046_combout\ $end
$var wire 1 g" \RAM|ram~1070_combout\ $end
$var wire 1 h" \RAM|ram~1052_combout\ $end
$var wire 1 i" \CPU|ULA_item|Add0~22\ $end
$var wire 1 j" \CPU|ULA_item|Add0~25_sumout\ $end
$var wire 1 k" \CPU|MUX_item|saida_MUX[6]~4_combout\ $end
$var wire 1 l" \RAM|ram~23_q\ $end
$var wire 1 m" \RAM|ram~31_q\ $end
$var wire 1 n" \RAM|ram~1047_combout\ $end
$var wire 1 o" \RAM|ram~1066_combout\ $end
$var wire 1 p" \RAM|ram~1053_combout\ $end
$var wire 1 q" \CPU|ULA_item|Add0~26\ $end
$var wire 1 r" \CPU|ULA_item|Add0~29_sumout\ $end
$var wire 1 s" \CPU|MUX_item|saida_MUX[7]~5_combout\ $end
$var wire 1 t" \LogicLed_item|comb~0_combout\ $end
$var wire 1 u" \LogicLed_item|comb~1_combout\ $end
$var wire 1 v" \LogicLed_item|LED_8_item|DOUT~0_combout\ $end
$var wire 1 w" \LogicLed_item|LED_8_item|DOUT~q\ $end
$var wire 1 x" \LogicLed_item|LED_9_item|DOUT~0_combout\ $end
$var wire 1 y" \LogicLed_item|LED_9_item|DOUT~q\ $end
$var wire 1 z" \CPU|PC_item|DOUT\ [8] $end
$var wire 1 {" \CPU|PC_item|DOUT\ [7] $end
$var wire 1 |" \CPU|PC_item|DOUT\ [6] $end
$var wire 1 }" \CPU|PC_item|DOUT\ [5] $end
$var wire 1 ~" \CPU|PC_item|DOUT\ [4] $end
$var wire 1 !# \CPU|PC_item|DOUT\ [3] $end
$var wire 1 "# \CPU|PC_item|DOUT\ [2] $end
$var wire 1 ## \CPU|PC_item|DOUT\ [1] $end
$var wire 1 $# \CPU|PC_item|DOUT\ [0] $end
$var wire 1 %# \LogicLed_item|LEDR_item|DOUT\ [7] $end
$var wire 1 &# \LogicLed_item|LEDR_item|DOUT\ [6] $end
$var wire 1 '# \LogicLed_item|LEDR_item|DOUT\ [5] $end
$var wire 1 (# \LogicLed_item|LEDR_item|DOUT\ [4] $end
$var wire 1 )# \LogicLed_item|LEDR_item|DOUT\ [3] $end
$var wire 1 *# \LogicLed_item|LEDR_item|DOUT\ [2] $end
$var wire 1 +# \LogicLed_item|LEDR_item|DOUT\ [1] $end
$var wire 1 ,# \LogicLed_item|LEDR_item|DOUT\ [0] $end
$var wire 1 -# \CPU|REGA_item|DOUT\ [7] $end
$var wire 1 .# \CPU|REGA_item|DOUT\ [6] $end
$var wire 1 /# \CPU|REGA_item|DOUT\ [5] $end
$var wire 1 0# \CPU|REGA_item|DOUT\ [4] $end
$var wire 1 1# \CPU|REGA_item|DOUT\ [3] $end
$var wire 1 2# \CPU|REGA_item|DOUT\ [2] $end
$var wire 1 3# \CPU|REGA_item|DOUT\ [1] $end
$var wire 1 4# \CPU|REGA_item|DOUT\ [0] $end
$var wire 1 5# \CPU|REGA_item|ALT_INV_DOUT\ [7] $end
$var wire 1 6# \CPU|REGA_item|ALT_INV_DOUT\ [6] $end
$var wire 1 7# \CPU|REGA_item|ALT_INV_DOUT\ [5] $end
$var wire 1 8# \CPU|REGA_item|ALT_INV_DOUT\ [4] $end
$var wire 1 9# \CPU|REGA_item|ALT_INV_DOUT\ [3] $end
$var wire 1 :# \CPU|REGA_item|ALT_INV_DOUT\ [2] $end
$var wire 1 ;# \CPU|REGA_item|ALT_INV_DOUT\ [1] $end
$var wire 1 <# \CPU|REGA_item|ALT_INV_DOUT\ [0] $end
$var wire 1 =# \CPU|PC_item|ALT_INV_DOUT\ [8] $end
$var wire 1 ># \CPU|PC_item|ALT_INV_DOUT\ [7] $end
$var wire 1 ?# \CPU|PC_item|ALT_INV_DOUT\ [6] $end
$var wire 1 @# \CPU|PC_item|ALT_INV_DOUT\ [5] $end
$var wire 1 A# \CPU|PC_item|ALT_INV_DOUT\ [4] $end
$var wire 1 B# \CPU|PC_item|ALT_INV_DOUT\ [3] $end
$var wire 1 C# \CPU|PC_item|ALT_INV_DOUT\ [2] $end
$var wire 1 D# \CPU|PC_item|ALT_INV_DOUT\ [1] $end
$var wire 1 E# \CPU|PC_item|ALT_INV_DOUT\ [0] $end
$var wire 1 F# \CPU|DECODER_item|ALT_INV_saida[6]~3_combout\ $end
$var wire 1 G# \RAM|ALT_INV_ram~1055_combout\ $end
$var wire 1 H# \RAM|ALT_INV_ram~1054_combout\ $end
$var wire 1 I# \RAM|ALT_INV_ram~1053_combout\ $end
$var wire 1 J# \RAM|ALT_INV_ram~1052_combout\ $end
$var wire 1 K# \RAM|ALT_INV_ram~1051_combout\ $end
$var wire 1 L# \RAM|ALT_INV_ram~1050_combout\ $end
$var wire 1 M# \RAM|ALT_INV_ram~1049_combout\ $end
$var wire 1 N# \RAM|ALT_INV_ram~1048_combout\ $end
$var wire 1 O# \CPU|DECODER_item|ALT_INV_Equal10~1_combout\ $end
$var wire 1 P# \RAM|ALT_INV_ram~1047_combout\ $end
$var wire 1 Q# \RAM|ALT_INV_ram~31_q\ $end
$var wire 1 R# \RAM|ALT_INV_ram~23_q\ $end
$var wire 1 S# \RAM|ALT_INV_ram~1046_combout\ $end
$var wire 1 T# \RAM|ALT_INV_ram~30_q\ $end
$var wire 1 U# \RAM|ALT_INV_ram~22_q\ $end
$var wire 1 V# \RAM|ALT_INV_ram~1045_combout\ $end
$var wire 1 W# \RAM|ALT_INV_ram~29_q\ $end
$var wire 1 X# \RAM|ALT_INV_ram~21_q\ $end
$var wire 1 Y# \RAM|ALT_INV_ram~1044_combout\ $end
$var wire 1 Z# \RAM|ALT_INV_ram~28_q\ $end
$var wire 1 [# \RAM|ALT_INV_ram~20_q\ $end
$var wire 1 \# \RAM|ALT_INV_ram~1043_combout\ $end
$var wire 1 ]# \RAM|ALT_INV_ram~27_q\ $end
$var wire 1 ^# \RAM|ALT_INV_ram~19_q\ $end
$var wire 1 _# \RAM|ALT_INV_ram~1042_combout\ $end
$var wire 1 `# \RAM|ALT_INV_ram~26_q\ $end
$var wire 1 a# \RAM|ALT_INV_ram~18_q\ $end
$var wire 1 b# \RAM|ALT_INV_ram~1041_combout\ $end
$var wire 1 c# \RAM|ALT_INV_ram~25_q\ $end
$var wire 1 d# \RAM|ALT_INV_ram~17_q\ $end
$var wire 1 e# \RAM|ALT_INV_ram~1040_combout\ $end
$var wire 1 f# \RAM|ALT_INV_ram~24_q\ $end
$var wire 1 g# \RAM|ALT_INV_ram~16_q\ $end
$var wire 1 h# \LogicLed_item|ALT_INV_comb~1_combout\ $end
$var wire 1 i# \LogicLed_item|ALT_INV_comb~0_combout\ $end
$var wire 1 j# \CPU|DECODER_item|ALT_INV_Equal10~0_combout\ $end
$var wire 1 k# \LogicLed_item|LED_9_item|ALT_INV_DOUT~q\ $end
$var wire 1 l# \LogicLed_item|LED_8_item|ALT_INV_DOUT~q\ $end
$var wire 1 m# \ROM|ALT_INV_memROM~8_combout\ $end
$var wire 1 n# \ROM|ALT_INV_memROM~5_combout\ $end
$var wire 1 o# \ROM|ALT_INV_memROM~4_combout\ $end
$var wire 1 p# \ROM|ALT_INV_memROM~3_combout\ $end
$var wire 1 q# \ROM|ALT_INV_memROM~2_combout\ $end
$var wire 1 r# \ROM|ALT_INV_memROM~1_combout\ $end
$var wire 1 s# \ROM|ALT_INV_memROM~0_combout\ $end
$var wire 1 t# \RAM|ALT_INV_ram~1086_combout\ $end
$var wire 1 u# \RAM|ALT_INV_ram~1082_combout\ $end
$var wire 1 v# \RAM|ALT_INV_ram~1078_combout\ $end
$var wire 1 w# \RAM|ALT_INV_ram~1074_combout\ $end
$var wire 1 x# \RAM|ALT_INV_ram~1070_combout\ $end
$var wire 1 y# \RAM|ALT_INV_ram~1066_combout\ $end
$var wire 1 z# \RAM|ALT_INV_ram~1062_combout\ $end
$var wire 1 {# \RAM|ALT_INV_ram~1056_combout\ $end
$upscope $end
$upscope $end
$enddefinitions $end
#0
$dumpvars
1!
0W
1X
xY
1Z
1[
1\
1]
1^
1_
1`
18!
x9!
x:!
x;!
0<!
0=!
0>!
0?!
0@!
0A!
0B!
0C!
0D!
1E!
0F!
0G!
0H!
0I!
0J!
0K!
0L!
0M!
0N!
0O!
1P!
0Q!
0R!
0S!
0T!
0U!
0V!
0W!
0X!
0Y!
0Z!
0[!
0\!
0]!
0^!
0_!
0`!
0a!
0b!
0c!
1d!
0e!
0f!
0g!
0h!
0i!
0j!
0k!
0l!
1m!
1n!
0o!
0p!
0q!
0r!
0s!
0t!
0u!
0v!
0w!
0x!
0y!
0z!
1{!
0|!
0}!
0~!
0!"
0""
0#"
0$"
0%"
0&"
0'"
0("
0)"
0*"
0+"
0,"
1-"
0."
0/"
00"
01"
02"
03"
04"
15"
16"
07"
18"
19"
1:"
0;"
0<"
0="
0>"
0?"
0@"
1A"
0B"
0C"
0D"
0E"
0F"
0G"
0H"
0I"
1J"
0K"
0L"
0M"
0N"
0O"
0P"
0Q"
1R"
0S"
0T"
0U"
0V"
0W"
0X"
0Y"
1Z"
0["
0\"
0]"
0^"
0_"
0`"
0a"
1b"
0c"
0d"
0e"
0f"
0g"
0h"
0i"
1j"
0k"
0l"
0m"
0n"
0o"
0p"
0q"
1r"
0s"
0t"
0u"
0v"
0w"
0x"
0y"
0F#
1G#
1H#
1I#
1J#
1K#
1L#
1M#
1N#
1O#
1P#
1Q#
1R#
1S#
1T#
1U#
1V#
1W#
1X#
1Y#
1Z#
1[#
1\#
1]#
1^#
1_#
1`#
1a#
1b#
1c#
1d#
1e#
1f#
1g#
1h#
1i#
1j#
1k#
1l#
1m#
1n#
1o#
1p#
1q#
1r#
1s#
1t#
1u#
1v#
1w#
1x#
1y#
1z#
1{#
x/
x0
x1
12
xa
xb
xc
1d
0e
0f
0g
0h
0i
0j
0k
0l
0m
0n
1o
0p
0q
0r
0s
0t
0u
0v
0w
0x
0y
1z
0{
0|
0}
0~
0!!
0"!
0#!
0$!
0%!
0&!
0'!
0(!
0)!
0*!
0+!
0,!
0-!
0.!
0/!
00!
01!
02!
03!
04!
05!
06!
17!
0z"
0{"
0|"
0}"
0~"
0!#
0"#
0##
0$#
0%#
0&#
0'#
0(#
0)#
0*#
0+#
0,#
0-#
0.#
0/#
00#
01#
02#
03#
04#
15#
16#
17#
18#
19#
1:#
1;#
1<#
1=#
1>#
1?#
1@#
1A#
1B#
1C#
1D#
1E#
0"
1#
0$
0%
0&
0'
0(
0)
0*
0+
0,
0-
1.
03
04
05
06
07
08
09
0:
0;
0<
0=
0>
0?
0@
0A
0B
0C
0D
0E
0F
0G
0H
0I
0J
0K
0L
0M
1N
0O
0P
0Q
0R
0S
0T
0U
0V
$end
#10000
0!
02
0`
0d
0m!
08!
#20000
1!
12
1`
1d
1m!
18!
1$#
14#
0<#
0E#
0n!
1o!
1z!
1*"
0-"
1/"
08"
09"
0:"
1t"
06"
1@"
0i#
1F#
0s#
1\!
1<!
0A"
1I"
1p!
0{!
16"
1.!
1m
0J"
1Q"
1V
1E
1N!
0E!
0d!
0R"
1Y"
1q
0z
07!
1%
0Z"
1a"
0.
0N
0b"
1i"
0j"
1q"
0r"
#30000
0!
02
0`
0d
0m!
08!
#40000
1!
12
1`
1d
1m!
18!
1##
0$#
10"
0g#
1E#
0D#
0p!
1q!
1n!
0o!
0*"
1+"
1,"
1."
0/"
1:"
0t"
13"
17"
0H#
0e#
1i#
0O#
0m#
0<!
1=!
1p!
0q!
1r!
05"
06"
1A"
0I"
1J"
0Q"
1R"
0Y"
1Z"
0a"
1b"
0i"
1j"
0q"
1r"
14"
18"
0m
1l
0r!
0z#
0E
1D
1O!
0N!
0r"
0j"
0b"
0Z"
0R"
0J"
16"
0@"
0P!
06"
1@"
1p
0q
0A"
0o
0%
1$
1A"
0#
#50000
0!
02
0`
0d
0m!
08!
#60000
1!
12
1`
1d
1m!
18!
1$#
04#
13#
0;#
1<#
0E#
0n!
1o!
0z!
1*"
0+"
0,"
0."
11"
0:"
1t"
16"
0@"
0A"
1I"
0i#
1O#
1m#
1s#
1]!
0\!
1<!
1J"
1A"
0I"
0p!
1q!
1{!
03"
07"
15"
06"
0A"
1I"
0J"
1Q"
1R"
1Z"
1b"
1j"
1r"
1-!
0.!
1m
1r!
1J"
0Q"
1H#
1e#
0V
1U
1E
0O!
1N!
0R"
1Y"
0J"
1Q"
16"
1E!
1d!
1P!
04"
08"
1R"
0Y"
0p
1q
0R"
1Y"
0Z"
1a"
1z#
1z
17!
1o
1%
0$
1Z"
0a"
1.
1#
1N
06"
1@"
0b"
1i"
0Z"
1a"
1b"
0i"
0b"
1i"
0j"
1q"
1A"
1j"
0q"
0r"
0j"
1q"
1r"
0r"
#70000
0!
02
0`
0d
0m!
08!
#80000
1!
12
1`
1d
1m!
18!
1"#
0##
0$#
1="
0c#
1E#
1D#
0C#
0r!
1s!
1p!
0q!
1n!
0o!
1z!
1,"
01"
19"
1:"
0t"
1>"
1B"
0G#
0b#
1i#
0m#
0s#
0<!
0=!
1>!
0p!
1r!
0s!
1t!
0{!
13"
17"
0>"
0B"
1?"
1C"
0m
0l
1k
0t!
0{#
1G#
1b#
0H#
0e#
0E
0D
1C
0E!
0d!
0P!
14"
18"
0?"
0C"
0A"
1{#
0z#
0z
07!
0o
0.
0#
0N
16"
0@"
1A"
0A"
#90000
0!
02
0`
0d
0m!
08!
#100000
1!
12
1`
1d
1m!
18!
1$#
14#
03#
1;#
0<#
0E#
0n!
1o!
0z!
1)"
0,"
09"
0:"
1t"
06"
1@"
1A"
0I"
0i#
1m#
0n#
1s#
0]!
1\!
1<!
1J"
0Q"
0A"
1I"
1p!
1{!
03"
07"
1>"
1B"
1u"
0-!
1.!
1m
0J"
1Q"
1R"
0Y"
0h#
0G#
0b#
1H#
1e#
1V
0U
1E
1M!
1l!
1E!
1d!
1P!
04"
08"
1?"
1C"
1v"
1Z"
0a"
0R"
1Y"
1r
1/!
0{#
1z#
1z
17!
1o
1&
1F
0Z"
1a"
1b"
0i"
1.
1#
1N
16"
1A"
0I"
1j"
0q"
0b"
1i"
1J"
0Q"
0j"
1q"
1r"
1R"
0Y"
0r"
1Z"
0a"
1b"
0i"
1j"
0q"
1r"
#110000
0!
02
0`
0d
0m!
08!
#120000
1!
12
1`
1d
1m!
18!
1##
0$#
1w"
0l#
1E#
0D#
0p!
1q!
1n!
0o!
1y!
1z!
0s#
0r#
1Z!
0<!
1=!
1p!
0q!
0r!
1s!
0{!
0>"
0B"
1x"
1|
0m
1l
1t!
1r!
0s!
1G#
1b#
14
0E
1D
1F!
1e!
0E!
0d!
0?"
0C"
0t!
1y
16!
1{#
0z
07!
1-
1M
0.
0N
0A"
1I"
0J"
1Q"
0R"
1Y"
0Z"
1a"
0b"
1i"
0j"
1q"
0r"
#130000
0!
02
0`
0d
0m!
08!
#140000
1!
12
1`
1d
1m!
18!
1$#
1y"
0k#
0E#
0n!
1o!
1v!
1x!
0y!
0z!
0)"
0*"
1-"
18"
19"
1:"
0t"
1i#
0F#
1n#
1s#
1r#
0q#
0j#
1[!
1<!
0p!
1q!
1{!
1B"
06"
1J"
0Q"
1K"
1Z"
0a"
1["
1j"
0q"
1k"
0u"
1{
1m
0r!
1s!
1h#
0G#
13
1E
0N!
0M!
0l!
0F!
0e!
1G!
1I!
1K!
1f!
1h!
1j!
1r"
1b"
0i"
1R"
0Y"
1E!
1d!
1t!
0q
0r
0/!
0y
06!
1x
1v
1t
15!
13!
11!
0Z"
0j"
1z
17!
0-
1,
1*
1(
0&
0%
0M
1L
1J
1H
0F
1.
1N
#150000
0!
02
0`
0d
0m!
08!
#160000
1!
12
1`
1d
1m!
18!
1!#
0"#
0##
0$#
12#
10#
1.#
06#
08#
0:#
1E#
1D#
1C#
0B#
0t!
1|!
1r!
0s!
1p!
0q!
1n!
0o!
0v!
0x!
1z!
1)"
1*"
0-"
08"
09"
0:"
1;"
1C"
1t"
0J"
1Q"
1Z"
1j"
0i#
1F#
0n#
0s#
1q#
1j#
1b!
1`!
1^!
0<!
0=!
0>!
1?!
0R"
1Y"
0p!
0r!
1t!
0|!
1}!
0{!
13"
17"
0B"
16"
1J"
0K"
0Z"
1a"
0["
0j"
1q"
0k"
1u"
1(!
1*!
1,!
0m
0l
0k
1j
0}!
1Z"
0h#
1G#
0H#
0e#
1T
1R
1P
0E
0D
0C
1B
1N!
1M!
1l!
0G!
0I!
0K!
0f!
0h!
0j!
0r"
0b"
1i"
0E!
0d!
14"
18"
0C"
1q
1r
1/!
0x
0v
0t
05!
03!
01!
1j"
0z#
0z
07!
0,
0*
0(
1&
1%
0L
0J
0H
1F
0.
0N
06"
#170000
0!
02
0`
0d
0m!
08!
