Aula3ATv1/simulation/qsim/Ent1Aula3.msim.vcd
$comment
	File created using the following command:
		vcd file Ent1Aula3.msim.vcd -direction
$end
$date
	Mon Sep 05 15:47:55 2022
$end
$version
	ModelSim Version 2020.1
$end
$timescale
	1ps
$end

$scope module ent1aula3_vhd_vec_tst $end
$var wire 1 ! CLOCK_50 $end
$var wire 1 " KEY [3] $end
$var wire 1 # KEY [2] $end
$var wire 1 $ KEY [1] $end
$var wire 1 % KEY [0] $end
$var wire 1 & LEDR [9] $end
$var wire 1 ' LEDR [8] $end
$var wire 1 ( LEDR [7] $end
$var wire 1 ) LEDR [6] $end
$var wire 1 * LEDR [5] $end
$var wire 1 + LEDR [4] $end
$var wire 1 , LEDR [3] $end
$var wire 1 - LEDR [2] $end
$var wire 1 . LEDR [1] $end
$var wire 1 / LEDR [0] $end
$var wire 1 0 PC_OUT [2] $end
$var wire 1 1 PC_OUT [1] $end
$var wire 1 2 PC_OUT [0] $end
$var wire 1 3 SW [9] $end
$var wire 1 4 SW [8] $end
$var wire 1 5 SW [7] $end
$var wire 1 6 SW [6] $end
$var wire 1 7 SW [5] $end
$var wire 1 8 SW [4] $end
$var wire 1 9 SW [3] $end
$var wire 1 : SW [2] $end
$var wire 1 ; SW [1] $end
$var wire 1 < SW [0] $end

$scope module i1 $end
$var wire 1 = gnd $end
$var wire 1 > vcc $end
$var wire 1 ? unknown $end
$var wire 1 @ devoe $end
$var wire 1 A devclrn $end
$var wire 1 B devpor $end
$var wire 1 C ww_devoe $end
$var wire 1 D ww_devclrn $end
$var wire 1 E ww_devpor $end
$var wire 1 F ww_CLOCK_50 $end
$var wire 1 G ww_KEY [3] $end
$var wire 1 H ww_KEY [2] $end
$var wire 1 I ww_KEY [1] $end
$var wire 1 J ww_KEY [0] $end
$var wire 1 K ww_SW [9] $end
$var wire 1 L ww_SW [8] $end
$var wire 1 M ww_SW [7] $end
$var wire 1 N ww_SW [6] $end
$var wire 1 O ww_SW [5] $end
$var wire 1 P ww_SW [4] $end
$var wire 1 Q ww_SW [3] $end
$var wire 1 R ww_SW [2] $end
$var wire 1 S ww_SW [1] $end
$var wire 1 T ww_SW [0] $end
$var wire 1 U ww_PC_OUT [2] $end
$var wire 1 V ww_PC_OUT [1] $end
$var wire 1 W ww_PC_OUT [0] $end
$var wire 1 X ww_LEDR [9] $end
$var wire 1 Y ww_LEDR [8] $end
$var wire 1 Z ww_LEDR [7] $end
$var wire 1 [ ww_LEDR [6] $end
$var wire 1 \ ww_LEDR [5] $end
$var wire 1 ] ww_LEDR [4] $end
$var wire 1 ^ ww_LEDR [3] $end
$var wire 1 _ ww_LEDR [2] $end
$var wire 1 ` ww_LEDR [1] $end
$var wire 1 a ww_LEDR [0] $end
$var wire 1 b \CLOCK_50~input_o\ $end
$var wire 1 c \KEY[1]~input_o\ $end
$var wire 1 d \KEY[2]~input_o\ $end
$var wire 1 e \KEY[3]~input_o\ $end
$var wire 1 f \SW[4]~input_o\ $end
$var wire 1 g \SW[5]~input_o\ $end
$var wire 1 h \~QUARTUS_CREATED_GND~I_combout\ $end
$var wire 1 i \KEY[0]~input_o\ $end
$var wire 1 j \KEY[0]~inputCLKENA0_outclk\ $end
$var wire 1 k \PC|DOUT[0]~2_combout\ $end
$var wire 1 l \PC|DOUT[0]~DUPLICATE_q\ $end
$var wire 1 m \PC|DOUT[1]~0_combout\ $end
$var wire 1 n \PC|DOUT[1]~DUPLICATE_q\ $end
$var wire 1 o \PC|DOUT[2]~1_combout\ $end
$var wire 1 p \PC|DOUT[2]~DUPLICATE_q\ $end
$var wire 1 q \SW[6]~input_o\ $end
$var wire 1 r \ULA1|Add0~18_cout\ $end
$var wire 1 s \ULA1|Add0~1_sumout\ $end
$var wire 1 t \SW[0]~input_o\ $end
$var wire 1 u \DECODER|saida[3]~1_combout\ $end
$var wire 1 v \SW[7]~input_o\ $end
$var wire 1 w \ULA1|Add0~2\ $end
$var wire 1 x \ULA1|Add0~5_sumout\ $end
$var wire 1 y \SW[1]~input_o\ $end
$var wire 1 z \SW[8]~input_o\ $end
$var wire 1 { \ULA1|Add0~6\ $end
$var wire 1 | \ULA1|Add0~9_sumout\ $end
$var wire 1 } \SW[2]~input_o\ $end
$var wire 1 ~ \SW[9]~input_o\ $end
$var wire 1 !! \ULA1|Add0~10\ $end
$var wire 1 "! \ULA1|Add0~13_sumout\ $end
$var wire 1 #! \SW[3]~input_o\ $end
$var wire 1 $! \DECODER|saida[0]~0_combout\ $end
$var wire 1 %! \REGA|DOUT\ [3] $end
$var wire 1 &! \REGA|DOUT\ [2] $end
$var wire 1 '! \REGA|DOUT\ [1] $end
$var wire 1 (! \REGA|DOUT\ [0] $end
$var wire 1 )! \PC|DOUT\ [2] $end
$var wire 1 *! \PC|DOUT\ [1] $end
$var wire 1 +! \PC|DOUT\ [0] $end
$var wire 1 ,! \REGA|ALT_INV_DOUT\ [3] $end
$var wire 1 -! \REGA|ALT_INV_DOUT\ [2] $end
$var wire 1 .! \REGA|ALT_INV_DOUT\ [1] $end
$var wire 1 /! \REGA|ALT_INV_DOUT\ [0] $end
$var wire 1 0! \PC|ALT_INV_DOUT\ [2] $end
$var wire 1 1! \PC|ALT_INV_DOUT\ [1] $end
$var wire 1 2! \PC|ALT_INV_DOUT\ [0] $end
$var wire 1 3! \DECODER|ALT_INV_saida[3]~1_combout\ $end
$var wire 1 4! \PC|ALT_INV_DOUT[2]~DUPLICATE_q\ $end
$var wire 1 5! \PC|ALT_INV_DOUT[1]~DUPLICATE_q\ $end
$var wire 1 6! \PC|ALT_INV_DOUT[0]~DUPLICATE_q\ $end
$var wire 1 7! \ALT_INV_SW[9]~input_o\ $end
$var wire 1 8! \ALT_INV_SW[8]~input_o\ $end
$var wire 1 9! \ALT_INV_SW[7]~input_o\ $end
$var wire 1 :! \ALT_INV_SW[6]~input_o\ $end
$upscope $end
$upscope $end
$enddefinitions $end
#0
$dumpvars
x!
0=
1>
x?
1@
1A
1B
1C
1D
1E
xF
xb
xc
xd
xe
xf
xg
xh
1i
1j
1k
0l
0m
0n
0o
0p
1q
1r
1s
1t
0u
1v
0w
0x
1y
0z
0{
1|
0}
0~
0!!
1"!
0#!
0$!
13!
14!
15!
16!
17!
18!
09!
0:!
x"
x#
x$
1%
03
04
15
16
x7
x8
09
0:
1;
1<
xG
xH
xI
1J
0K
0L
1M
1N
xO
xP
0Q
0R
1S
1T
0U
0V
0W
0X
1Y
0Z
0[
0\
0]
0^
0_
0`
0a
0%!
0&!
0'!
0(!
0)!
0*!
0+!
1,!
1-!
1.!
1/!
10!
11!
12!
0&
1'
0(
0)
0*
0+
0,
0-
0.
0/
00
01
02
$end
#10000
0%
0J
0i
0j
#20000
1%
1J
1i
1j
1+!
1l
1(!
1'!
0.!
0/!
06!
02!
0k
0r
1u
0|
1m
0"!
1$!
1w
1{
03!
1`
1a
1W
1|
1x
0s
1/
1.
12
1[
1X
1)
1&
#30000
0%
0J
0i
0j
#40000
1%
1J
1i
1j
0+!
0l
1*!
1n
0(!
1&!
0-!
1/!
05!
01!
16!
12!
1k
1s
0w
0|
1!!
1_
0a
1V
0W
1"!
0x
0/
1-
02
11
#50000
0%
1:
0;
0<
0J
0T
0S
1R
1}
0y
0t
0i
0j
#60000
1%
14
05
06
1J
0N
0M
1L
1z
0v
0q
1i
1j
1:!
19!
08!
1|
1x
0{
0s
1+!
1l
1(!
0'!
0&!
1%!
0,!
1-!
1.!
0/!
06!
02!
0|
0k
0m
1o
1s
0x
1|
0!!
0"!
1^
0_
0`
1a
1W
1"!
1/
0.
0-
1,
12
#70000
0%
0J
0i
0j
#80000
1%
04
15
16
1J
1N
1M
0L
0z
1v
1q
1i
1j
0:!
09!
18!
0|
1x
0s
1w
0+!
0l
0*!
0n
1)!
1p
1&!
0-!
04!
00!
15!
11!
16!
12!
0x
1{
1k
0"!
0$!
1r
1s
0w
1x
0{
1!!
1|
1_
1U
0V
0W
1"!
0|
0x
0s
1w
1-
02
01
10
1x
0[
0)
#90000
0%
0J
0i
0j
#100000
1%
06
13
1J
0N
1K
1~
0q
1i
1j
1:!
07!
0"!
1s
1+!
1l
0(!
1'!
0&!
1-!
0.!
1/!
06!
02!
0k
0u
1m
0s
0x
1{
1|
0!!
13!
0_
1`
0a
1W
1"!
0|
1!!
0/
1.
0-
12
0"!
0X
0&
#110000
0%
16
0:
1;
1<
19
0J
1T
1S
0R
1Q
1N
1q
1#!
0}
1y
1t
0i
0j
0:!
1s
0w
1x
0{
1|
0!!
1"!
#120000
1%
06
1:
0;
0<
14
05
1J
0T
0S
1R
0N
0M
1L
1z
0v
0q
1}
0y
0t
1i
1j
1:!
19!
08!
0|
0x
1{
0s
1w
0+!
0l
1*!
1n
0'!
1&!
0-!
1.!
05!
01!
16!
12!
1x
1|
1k
0x
0|
1!!
1_
0`
1V
0W
0"!
0.
1-
02
11
#130000
0%
16
1<
0J
1T
1N
1q
1t
0i
0j
0:!
1s
0w
1x
0{
1|
0!!
1"!
#140000
1%
06
0<
1;
15
1J
0T
1S
0N
1M
1v
0q
1y
0t
1i
1j
1:!
09!
0x
0s
1w
1+!
1l
1'!
0.!
06!
02!
1x
0k
0m
0o
0x
1{
1`
1W
0|
1!!
1.
12
0"!
#150000
0%
16
1<
0J
1T
1N
1q
1t
0i
0j
0:!
1s
0w
1x
0{
1|
0!!
1"!
#160000
1%
06
0<
0;
05
0:
04
09
03
1J
0T
0S
0R
0Q
0N
0M
0L
0K
0~
0z
0v
0q
0#!
0}
0y
0t
1i
1j
1:!
19!
18!
17!
0"!
0|
1!!
0x
1{
0s
1w
0+!
0l
0*!
0n
0)!
0p
0'!
0&!
0%!
1,!
1-!
1.!
14!
10!
15!
11!
16!
12!
1x
1|
1"!
1k
0x
0|
0"!
0^
0_
0`
0U
0V
0W
0.
0-
0,
02
01
00
#170000
0%
16
1<
0J
1T
1N
1q
1t
0i
0j
0:!
1s
0w
1x
0{
1|
0!!
1"!
#180000
1%
06
0<
1;
15
1J
0T
1S
0N
1M
1v
0q
1y
0t
1i
1j
1:!
09!
0x
0s
1w
1+!
1l
1'!
0.!
06!
02!
1x
0k
0r
1s
0w
1u
0|
1m
0"!
1$!
1{
03!
1`
1W
1|
0x
0s
1.
12
1[
1X
1)
1&
#190000
0%
16
1<
0J
1T
1N
1q
1t
0i
0j
0:!
1s
#200000
1%
06
0<
0;
05
1:
14
1J
0T
0S
1R
0N
0M
1L
1z
0v
0q
1}
0y
0t
1i
1j
1:!
19!
08!
0|
1!!
1x
0{
0s
0+!
0l
1*!
1n
1(!
0'!
1&!
0-!
1.!
0/!
05!
01!
16!
12!
1|
0!!
1"!
1k
1s
0x
0|
1!!
0"!
1_
0`
1a
1V
0W
1"!
1/
0.
1-
02
11
#210000
0%
16
1<
0J
1T
1N
1q
1t
0i
0j
0:!
0s
1w
1x
#220000
1%
06
0<
1;
15
1J
0T
1S
0N
1M
1v
0q
1y
0t
1i
1j
1:!
09!
0x
1{
1s
0w
1+!
1l
0(!
1'!
0&!
1%!
0,!
1-!
0.!
1/!
06!
02!
1x
0{
1|
0k
0m
1o
0s
0x
1{
0|
0"!
1|
0!!
1^
0_
1`
0a
1W
0|
1!!
1"!
0/
1.
0-
1,
12
0"!
#230000
0%
16
1<
0J
1T
1N
1q
1t
0i
0j
0:!
1s
#240000
1%
06
0<
0;
05
0:
04
19
13
1J
0T
0S
0R
1Q
0N
0M
0L
1K
1~
0z
0v
0q
1#!
0}
0y
0t
1i
1j
1:!
19!
18!
07!
1"!
1|
0!!
1x
0{
0s
0+!
0l
0*!
0n
1)!
1p
1(!
0'!
0%!
1,!
1.!
0/!
04!
00!
15!
11!
16!
12!
0|
0"!
1k
0$!
1r
1|
1w
0^
0`
1a
1U
0V
0W
0x
1{
1s
1/
0.
0,
02
01
10
0|
1!!
0[
1"!
0)
#250000
0%
16
1<
0J
1T
1N
1q
1t
0i
0j
0:!
0s
#260000
1%
06
0<
1;
15
1J
0T
1S
0N
1M
1v
0q
1y
0t
1i
1j
1:!
09!
1x
0{
1s
1+!
1l
0(!
1%!
0,!
1/!
06!
02!
1|
0!!
0k
0u
1m
0s
0"!
1"!
13!
1^
0a
1W
0/
1,
12
0X
0&
#270000
0%
16
1<
0J
1T
1N
1q
1t
0i
0j
0:!
1s
0w
0x
#280000
1%
06
0<
0;
05
1:
14
1J
0T
0S
1R
0N
0M
1L
1z
0v
0q
1}
0y
0t
1i
1j
1:!
19!
08!
0|
1x
0s
1w
0+!
0l
1*!
1n
1&!
0-!
05!
01!
16!
12!
0x
1{
1k
1|
0|
1!!
1_
1V
0W
0"!
1-
02
11
#290000
0%
16
1<
0J
1T
1N
1q
1t
0i
0j
0:!
1s
0w
1x
0{
1|
0!!
1"!
#300000
1%
06
0<
1;
15
1J
0T
1S
0N
1M
1v
0q
1y
0t
1i
1j
1:!
09!
0x
0s
1w
1+!
1l
1'!
0.!
06!
02!
1x
0k
0m
0o
0x
1{
1`
1W
0|
1!!
1.
12
0"!
#310000
0%
16
1<
0J
1T
1N
1q
1t
0i
0j
0:!
1s
0w
1x
0{
1|
0!!
1"!
#320000
1%
06
0<
0;
05
0:
04
09
03
1J
0T
0S
0R
0Q
0N
0M
0L
0K
0~
0z
0v
0q
0#!
0}
0y
0t
1i
1j
1:!
19!
18!
17!
0"!
0|
1!!
0x
1{
0s
1w
0+!
0l
0*!
0n
0)!
0p
0'!
0&!
0%!
1,!
1-!
1.!
14!
10!
15!
11!
16!
12!
1x
1|
1"!
1k
0x
0|
0"!
0^
0_
0`
0U
0V
0W
0.
0-
0,
02
01
00
#330000
0%
16
1<
0J
1T
1N
1q
1t
0i
0j
0:!
1s
0w
1x
0{
1|
0!!
1"!
#340000
1%
06
0<
1;
15
1J
0T
1S
0N
1M
1v
0q
1y
0t
1i
1j
1:!
09!
0x
0s
1w
1+!
1l
1'!
0.!
06!
02!
1x
0k
0r
1s
0w
1u
0|
1m
0"!
1$!
1{
03!
1`
1W
1|
0x
0s
1.
12
1[
1X
1)
1&
#350000
0%
16
1<
0J
1T
1N
1q
1t
0i
0j
0:!
1s
#360000
1%
06
0<
0;
05
1:
14
1J
0T
0S
1R
0N
0M
1L
1z
0v
0q
1}
0y
0t
1i
1j
1:!
19!
08!
0|
1!!
1x
0{
0s
0+!
0l
1*!
1n
1(!
0'!
1&!
0-!
1.!
0/!
05!
01!
16!
12!
1|
0!!
1"!
1k
1s
0x
0|
1!!
0"!
1_
0`
1a
1V
0W
1"!
1/
0.
1-
02
11
#370000
0%
16
1<
0J
1T
1N
1q
1t
0i
0j
0:!
0s
1w
1x
#380000
1%
06
0<
1;
15
1J
0T
1S
0N
1M
1v
0q
1y
0t
1i
1j
1:!
09!
0x
1{
1s
0w
1+!
1l
0(!
1'!
0&!
1%!
0,!
1-!
0.!
1/!
06!
02!
1x
0{
1|
0k
0m
1o
0s
0x
1{
0|
0"!
1|
0!!
1^
0_
1`
0a
1W
0|
1!!
1"!
0/
1.
0-
1,
12
0"!
#390000
0%
16
1<
0J
1T
1N
1q
1t
0i
0j
0:!
1s
#400000
1%
06
0<
0;
05
0:
04
19
13
1J
0T
0S
0R
1Q
0N
0M
0L
1K
1~
0z
0v
0q
1#!
0}
0y
0t
1i
1j
1:!
19!
18!
07!
1"!
1|
0!!
1x
0{
0s
0+!
0l
0*!
0n
1)!
1p
1(!
0'!
0%!
1,!
1.!
0/!
04!
00!
15!
11!
16!
12!
0|
0"!
1k
0$!
1r
1|
1w
0^
0`
1a
1U
0V
0W
0x
1{
1s
1/
0.
0,
02
01
10
0|
1!!
0[
1"!
0)
#410000
0%
16
1<
0J
1T
1N
1q
1t
0i
0j
0:!
0s
#420000
1%
06
0<
1;
15
1J
0T
1S
0N
1M
1v
0q
1y
0t
1i
1j
1:!
09!
1x
0{
1s
1+!
1l
0(!
1%!
0,!
1/!
06!
02!
1|
0!!
0k
0u
1m
0s
0"!
1"!
13!
1^
0a
1W
0/
1,
12
0X
0&
#430000
0%
16
1<
0J
1T
1N
1q
1t
0i
0j
0:!
1s
0w
0x
#440000
1%
06
0<
0;
05
1:
14
1J
0T
0S
1R
0N
0M
1L
1z
0v
0q
1}
0y
0t
1i
1j
1:!
19!
08!
0|
1x
0s
1w
0+!
0l
1*!
1n
1&!
0-!
05!
01!
16!
12!
0x
1{
1k
1|
0|
1!!
1_
1V
0W
0"!
1-
02
11
#450000
0%
16
1<
0J
1T
1N
1q
1t
0i
0j
0:!
1s
0w
1x
0{
1|
0!!
1"!
#460000
1%
06
0<
1;
15
1J
0T
1S
0N
1M
1v
0q
1y
0t
1i
1j
1:!
09!
0x
0s
1w
1+!
1l
1'!
0.!
06!
02!
1x
0k
0m
0o
0x
1{
1`
1W
0|
1!!
1.
12
0"!
#470000
0%
16
1<
0J
1T
1N
1q
1t
0i
0j
0:!
1s
0w
1x
0{
1|
0!!
1"!
#480000
1%
06
0<
0;
05
0:
04
09
03
1J
0T
0S
0R
0Q
0N
0M
0L
0K
0~
0z
0v
0q
0#!
0}
0y
0t
1i
1j
1:!
19!
18!
17!
0"!
0|
1!!
0x
1{
0s
1w
0+!
0l
0*!
0n
0)!
0p
0'!
0&!
0%!
1,!
1-!
1.!
14!
10!
15!
11!
16!
12!
1x
1|
1"!
1k
0x
0|
0"!
0^
0_
0`
0U
0V
0W
0.
0-
0,
02
01
00
#490000
0%
16
1<
0J
1T
1N
1q
1t
0i
0j
0:!
1s
0w
1x
0{
1|
0!!
1"!
#500000
1%
06
0<
1;
15
1J
0T
1S
0N
1M
1v
0q
1y
0t
1i
1j
1:!
09!
0x
0s
1w
1+!
1l
1'!
0.!
06!
02!
1x
0k
0r
1s
0w
1u
0|
1m
0"!
1$!
1{
03!
1`
1W
1|
0x
0s
1.
12
1[
1X
1)
1&
#510000
0%
16
1<
0J
1T
1N
1q
1t
0i
0j
0:!
1s
#520000
1%
06
0<
0;
05
1:
14
1J
0T
0S
1R
0N
0M
1L
1z
0v
0q
1}
0y
0t
1i
1j
1:!
19!
08!
0|
1!!
1x
0{
0s
0+!
0l
1*!
1n
1(!
0'!
1&!
0-!
1.!
0/!
05!
01!
16!
12!
1|
0!!
1"!
1k
1s
0x
0|
1!!
0"!
1_
0`
1a
1V
0W
1"!
1/
0.
1-
02
11
#530000
0%
16
1<
0J
1T
1N
1q
1t
0i
0j
0:!
0s
1w
1x
#540000
1%
06
0<
1;
15
1J
0T
1S
0N
1M
1v
0q
1y
0t
1i
1j
1:!
09!
0x
1{
1s
0w
1+!
1l
0(!
1'!
0&!
1%!
0,!
1-!
0.!
1/!
06!
02!
1x
0{
1|
0k
0m
1o
0s
0x
1{
0|
0"!
1|
0!!
1^
0_
1`
0a
1W
0|
1!!
1"!
0/
1.
0-
1,
12
0"!
#550000
0%
16
1<
0J
1T
1N
1q
1t
0i
0j
0:!
1s
#560000
1%
06
0<
0;
05
0:
04
19
13
1J
0T
0S
0R
1Q
0N
0M
0L
1K
1~
0z
0v
0q
1#!
0}
0y
0t
1i
1j
1:!
19!
18!
07!
1"!
1|
0!!
1x
0{
0s
0+!
0l
0*!
0n
1)!
1p
1(!
0'!
0%!
1,!
1.!
0/!
04!
00!
15!
11!
16!
12!
0|
0"!
1k
0$!
1r
1|
1w
0^
0`
1a
1U
0V
0W
0x
1{
1s
1/
0.
0,
02
01
10
0|
1!!
0[
1"!
0)
#570000
0%
16
1<
0J
1T
1N
1q
1t
0i
0j
0:!
0s
#580000
1%
06
0<
1;
15
1J
0T
1S
0N
1M
1v
0q
1y
0t
1i
1j
1:!
09!
1x
0{
1s
1+!
1l
0(!
1%!
0,!
1/!
06!
02!
1|
0!!
0k
0u
1m
0s
0"!
1"!
13!
1^
0a
1W
0/
1,
12
0X
0&
#590000
0%
16
1<
0J
1T
1N
1q
1t
0i
0j
0:!
1s
0w
0x
#600000
1%
06
0<
0;
05
1:
14
1J
0T
0S
1R
0N
0M
1L
1z
0v
0q
1}
0y
0t
1i
1j
1:!
19!
08!
0|
1x
0s
1w
0+!
0l
1*!
1n
1&!
0-!
05!
01!
16!
12!
0x
1{
1k
1|
0|
1!!
1_
1V
0W
0"!
1-
02
11
#610000
0%
16
1<
0J
1T
1N
1q
1t
0i
0j
0:!
1s
0w
1x
0{
1|
0!!
1"!
#620000
1%
06
0<
1;
15
1J
0T
1S
0N
1M
1v
0q
1y
0t
1i
1j
1:!
09!
0x
0s
1w
1+!
1l
1'!
0.!
06!
02!
1x
0k
0m
0o
0x
1{
1`
1W
0|
1!!
1.
12
0"!
#630000
0%
16
1<
0J
1T
1N
1q
1t
0i
0j
0:!
1s
0w
1x
0{
1|
0!!
1"!
#640000
1%
06
0<
0;
05
0:
04
09
03
1J
0T
0S
0R
0Q
0N
0M
0L
0K
0~
0z
0v
0q
0#!
0}
0y
0t
1i
1j
1:!
19!
18!
17!
0"!
0|
1!!
0x
1{
0s
1w
0+!
0l
0*!
0n
0)!
0p
0'!
0&!
0%!
1,!
1-!
1.!
14!
10!
15!
11!
16!
12!
1x
1|
1"!
1k
0x
0|
0"!
0^
0_
0`
0U
0V
0W
0.
0-
0,
02
01
00
#650000
0%
16
1<
0J
1T
1N
1q
1t
0i
0j
0:!
1s
0w
1x
0{
1|
0!!
1"!
#660000
1%
06
0<
1;
15
1J
0T
1S
0N
1M
1v
0q
1y
0t
1i
1j
1:!
09!
0x
0s
1w
1+!
1l
1'!
0.!
06!
02!
1x
0k
0r
1s
0w
1u
0|
1m
0"!
1$!
1{
03!
1`
1W
1|
0x
0s
1.
12
1[
1X
1)
1&
#670000
0%
16
1<
0J
1T
1N
1q
1t
0i
0j
0:!
1s
#680000
1%
06
0<
0;
05
1:
14
1J
0T
0S
1R
0N
0M
1L
1z
0v
0q
1}
0y
0t
1i
1j
1:!
19!
08!
0|
1!!
1x
0{
0s
0+!
0l
1*!
1n
1(!
0'!
1&!
0-!
1.!
0/!
05!
01!
16!
12!
1|
0!!
1"!
1k
1s
0x
0|
1!!
0"!
1_
0`
1a
1V
0W
1"!
1/
0.
1-
02
11
#690000
0%
16
1<
0J
1T
1N
1q
1t
0i
0j
0:!
0s
1w
1x
#700000
1%
06
0<
1;
15
1J
0T
1S
0N
1M
1v
0q
1y
0t
1i
1j
1:!
09!
0x
1{
1s
0w
1+!
1l
0(!
1'!
0&!
1%!
0,!
1-!
0.!
1/!
06!
02!
1x
0{
1|
0k
0m
1o
0s
0x
1{
0|
0"!
1|
0!!
1^
0_
1`
0a
1W
0|
1!!
1"!
0/
1.
0-
1,
12
0"!
#710000
0%
16
1<
0J
1T
1N
1q
1t
0i
0j
0:!
1s
#720000
1%
06
0<
0;
05
0:
04
19
13
1J
0T
0S
0R
1Q
0N
0M
0L
1K
1~
0z
0v
0q
1#!
0}
0y
0t
1i
1j
1:!
19!
18!
07!
1"!
1|
0!!
1x
0{
0s
0+!
0l
0*!
0n
1)!
1p
1(!
0'!
0%!
1,!
1.!
0/!
04!
00!
15!
11!
16!
12!
0|
0"!
1k
0$!
1r
1|
1w
0^
0`
1a
1U
0V
0W
0x
1{
1s
1/
0.
0,
02
01
10
0|
1!!
0[
1"!
0)
#730000
0%
16
1<
0J
1T
1N
1q
1t
0i
0j
0:!
0s
#740000
1%
06
0<
1;
15
1J
0T
1S
0N
1M
1v
0q
1y
0t
1i
1j
1:!
09!
1x
0{
1s
1+!
1l
0(!
1%!
0,!
1/!
06!
02!
1|
0!!
0k
0u
1m
0s
0"!
1"!
13!
1^
0a
1W
0/
1,
12
0X
0&
#750000
0%
16
1<
0J
1T
1N
1q
1t
0i
0j
0:!
1s
0w
0x
#760000
1%
06
0<
0;
05
1:
14
1J
0T
0S
1R
0N
0M
1L
1z
0v
0q
1}
0y
0t
1i
1j
1:!
19!
08!
0|
1x
0s
1w
0+!
0l
1*!
1n
1&!
0-!
05!
01!
16!
12!
0x
1{
1k
1|
0|
1!!
1_
1V
0W
0"!
1-
02
11
#770000
0%
16
1<
0J
1T
1N
1q
1t
0i
0j
0:!
1s
0w
1x
0{
1|
0!!
1"!
#780000
1%
06
0<
1;
15
1J
0T
1S
0N
1M
1v
0q
1y
0t
1i
1j
1:!
09!
0x
0s
1w
1+!
1l
1'!
0.!
06!
02!
1x
0k
0m
0o
0x
1{
1`
1W
0|
1!!
1.
12
0"!
#790000
0%
16
1<
0J
1T
1N
1q
1t
0i
0j
0:!
1s
0w
1x
0{
1|
0!!
1"!
#800000
1%
06
0<
0;
05
0:
04
09
03
1J
0T
0S
0R
0Q
0N
0M
0L
0K
0~
0z
0v
0q
0#!
0}
0y
0t
1i
1j
1:!
19!
18!
17!
0"!
0|
1!!
0x
1{
0s
1w
0+!
0l
0*!
0n
0)!
0p
0'!
0&!
0%!
1,!
1-!
1.!
14!
10!
15!
11!
16!
12!
1x
1|
1"!
1k
0x
0|
0"!
0^
0_
0`
0U
0V
0W
0.
0-
0,
02
01
00
#810000
0%
16
1<
0J
1T
1N
1q
1t
0i
0j
0:!
1s
0w
1x
0{
1|
0!!
1"!
#820000
1%
06
0<
1;
15
1J
0T
1S
0N
1M
1v
0q
1y
0t
1i
1j
1:!
09!
0x
0s
1w
1+!
1l
1'!
0.!
06!
02!
1x
0k
0r
1s
0w
1u
0|
1m
0"!
1$!
1{
03!
1`
1W
1|
0x
0s
1.
12
1[
1X
1)
1&
#830000
0%
16
1<
0J
1T
1N
1q
1t
0i
0j
0:!
1s
#840000
1%
06
0<
0;
05
1:
14
1J
0T
0S
1R
0N
0M
1L
1z
0v
0q
1}
0y
0t
1i
1j
1:!
19!
08!
0|
1!!
1x
0{
0s
0+!
0l
1*!
1n
1(!
0'!
1&!
0-!
1.!
0/!
05!
01!
16!
12!
1|
0!!
1"!
1k
1s
0x
0|
1!!
0"!
1_
0`
1a
1V
0W
1"!
1/
0.
1-
02
11
#850000
0%
16
1<
0J
1T
1N
1q
1t
0i
0j
0:!
0s
1w
1x
#860000
1%
06
0<
1;
15
1J
0T
1S
0N
1M
1v
0q
1y
0t
1i
1j
1:!
09!
0x
1{
1s
0w
1+!
1l
0(!
1'!
0&!
1%!
0,!
1-!
0.!
1/!
06!
02!
1x
0{
1|
0k
0m
1o
0s
0x
1{
0|
0"!
1|
0!!
1^
0_
1`
0a
1W
0|
1!!
1"!
0/
1.
0-
1,
12
0"!
#870000
0%
16
1<
0J
1T
1N
1q
1t
0i
0j
0:!
1s
#880000
1%
06
0<
0;
05
0:
04
19
13
1J
0T
0S
0R
1Q
0N
0M
0L
1K
1~
0z
0v
0q
1#!
0}
0y
0t
1i
1j
1:!
19!
18!
07!
1"!
1|
0!!
1x
0{
0s
0+!
0l
0*!
0n
1)!
1p
1(!
0'!
0%!
1,!
1.!
0/!
04!
00!
15!
11!
16!
12!
0|
0"!
1k
0$!
1r
1|
1w
0^
0`
1a
1U
0V
0W
0x
1{
1s
1/
0.
0,
02
01
10
0|
1!!
0[
1"!
0)
#890000
0%
16
1<
0J
1T
1N
1q
1t
0i
0j
0:!
0s
#900000
1%
06
0<
1;
15
1J
0T
1S
0N
1M
1v
0q
1y
0t
1i
1j
1:!
09!
1x
0{
1s
1+!
1l
0(!
1%!
0,!
1/!
06!
02!
1|
0!!
0k
0u
1m
0s
0"!
1"!
13!
1^
0a
1W
0/
1,
12
0X
0&
#910000
0%
16
1<
0J
1T
1N
1q
1t
0i
0j
0:!
1s
0w
0x
#920000
1%
06
0<
0;
05
1:
14
1J
0T
0S
1R
0N
0M
1L
1z
0v
0q
1}
0y
0t
1i
1j
1:!
19!
08!
0|
1x
0s
1w
0+!
0l
1*!
1n
1&!
0-!
05!
01!
16!
12!
0x
1{
1k
1|
0|
1!!
1_
1V
0W
0"!
1-
02
11
#930000
0%
16
1<
0J
1T
1N
1q
1t
0i
0j
0:!
1s
0w
1x
0{
1|
0!!
1"!
#940000
1%
06
0<
1;
15
1J
0T
1S
0N
1M
1v
0q
1y
0t
1i
1j
1:!
09!
0x
0s
1w
1+!
1l
1'!
0.!
06!
02!
1x
0k
0m
0o
0x
1{
1`
1W
0|
1!!
1.
12
0"!
#950000
0%
16
1<
0J
1T
1N
1q
1t
0i
0j
0:!
1s
0w
1x
0{
1|
0!!
1"!
#960000
1%
06
0<
0;
05
0:
04
09
03
1J
0T
0S
0R
0Q
0N
0M
0L
0K
0~
0z
0v
0q
0#!
0}
0y
0t
1i
1j
1:!
19!
18!
17!
0"!
0|
1!!
0x
1{
0s
1w
0+!
0l
0*!
0n
0)!
0p
0'!
0&!
0%!
1,!
1-!
1.!
14!
10!
15!
11!
16!
12!
1x
1|
1"!
1k
0x
0|
0"!
0^
0_
0`
0U
0V
0W
0.
0-
0,
02
01
00
#970000
0%
16
1<
0J
1T
1N
1q
1t
0i
0j
0:!
1s
0w
1x
0{
1|
0!!
1"!
#980000
1%
06
0<
1;
15
1J
0T
1S
0N
1M
1v
0q
1y
0t
1i
1j
1:!
09!
0x
0s
1w
1+!
1l
1'!
0.!
06!
02!
1x
0k
0r
1s
0w
1u
0|
1m
0"!
1$!
1{
03!
1`
1W
1|
0x
0s
1.
12
1[
1X
1)
1&
#990000
0%
16
1<
0J
1T
1N
1q
1t
0i
0j
0:!
1s
