Aula4/simulation/qsim/Atv1Aula3.msim.vcd
$comment
	File created using the following command:
		vcd file Atv1Aula3.msim.vcd -direction
$end
$date
	Wed Aug 24 10:49:10 2022
$end
$version
	ModelSim Version 2020.1
$end
$timescale
	1ps
$end

$scope module memoria_vhd_vec_tst $end
$var wire 1 ! Dado [7] $end
$var wire 1 " Dado [6] $end
$var wire 1 # Dado [5] $end
$var wire 1 $ Dado [4] $end
$var wire 1 % Dado [3] $end
$var wire 1 & Dado [2] $end
$var wire 1 ' Dado [1] $end
$var wire 1 ( Dado [0] $end
$var wire 1 ) Endereco [2] $end
$var wire 1 * Endereco [1] $end
$var wire 1 + Endereco [0] $end

$scope module i1 $end
$var wire 1 , gnd $end
$var wire 1 - vcc $end
$var wire 1 . unknown $end
$var wire 1 / devoe $end
$var wire 1 0 devclrn $end
$var wire 1 1 devpor $end
$var wire 1 2 ww_devoe $end
$var wire 1 3 ww_devclrn $end
$var wire 1 4 ww_devpor $end
$var wire 1 5 ww_Endereco [2] $end
$var wire 1 6 ww_Endereco [1] $end
$var wire 1 7 ww_Endereco [0] $end
$var wire 1 8 ww_Dado [7] $end
$var wire 1 9 ww_Dado [6] $end
$var wire 1 : ww_Dado [5] $end
$var wire 1 ; ww_Dado [4] $end
$var wire 1 < ww_Dado [3] $end
$var wire 1 = ww_Dado [2] $end
$var wire 1 > ww_Dado [1] $end
$var wire 1 ? ww_Dado [0] $end
$var wire 1 @ \~QUARTUS_CREATED_GND~I_combout\ $end
$var wire 1 A \Endereco[1]~input_o\ $end
$var wire 1 B \Endereco[0]~input_o\ $end
$var wire 1 C \Endereco[2]~input_o\ $end
$var wire 1 D \memROM~0_combout\ $end
$var wire 1 E \memROM~1_combout\ $end
$var wire 1 F \memROM~2_combout\ $end
$var wire 1 G \memROM~3_combout\ $end
$var wire 1 H \memROM~4_combout\ $end
$var wire 1 I \memROM~5_combout\ $end
$var wire 1 J \ALT_INV_memROM~1_combout\ $end
$var wire 1 K \ALT_INV_memROM~2_combout\ $end
$var wire 1 L \ALT_INV_memROM~4_combout\ $end
$var wire 1 M \ALT_INV_memROM~5_combout\ $end
$var wire 1 N \ALT_INV_Endereco[2]~input_o\ $end
$var wire 1 O \ALT_INV_Endereco[0]~input_o\ $end
$var wire 1 P \ALT_INV_Endereco[1]~input_o\ $end
$upscope $end
$upscope $end
$enddefinitions $end
#0
$dumpvars
0,
1-
x.
1/
10
11
12
13
14
x@
0A
0B
0C
0D
1E
0F
0G
0H
0I
0J
1K
1L
1M
1N
1O
1P
0)
0*
0+
05
06
07
08
19
1:
1;
0<
1=
0>
0?
0!
1"
1#
1$
0%
1&
0'
0(
$end
#100000
1+
17
1B
0O
1D
1F
1G
1H
0L
0K
1<
1?
0=
0;
1(
1%
0&
0$
#200000
0+
1*
07
16
1A
0B
1O
0P
0F
0G
1K
0<
1=
0%
1&
#300000
1+
17
1B
0O
0D
1F
1G
0H
1L
0K
1<
0?
0=
1;
0(
1%
0&
1$
#400000
0+
0*
1)
07
06
15
1C
0A
0B
1O
1P
0N
1D
0E
0G
1H
1I
0M
0L
1J
18
0<
09
1?
1>
0;
0:
1(
0%
0"
1!
1'
0$
0#
#500000
1+
17
1B
0O
0D
1E
0H
0I
1M
1L
0J
08
19
0?
0>
1;
1:
0(
1"
0!
0'
1$
1#
#600000
0+
1*
07
16
1A
0B
1O
0P
1D
0E
1H
1I
0M
0L
1J
18
09
1?
1>
0;
0:
1(
0"
1!
1'
0$
0#
#700000
1+
17
1B
0O
0H
0I
1M
1L
08
1;
1:
0!
1$
1#
#800000
0+
0*
0)
07
06
05
0C
0A
0B
1O
1P
1N
0D
1E
0F
1K
0J
19
0?
0>
1=
0(
1"
0'
1&
#900000
1+
17
1B
0O
1D
1F
1G
1H
0L
0K
1<
1?
0=
0;
1(
1%
0&
0$
